<!DOCTYPE html>
<!--
This is a starter template page. Use this page to start your new project from
scratch. This page gets rid of all links and provides the needed markup only.
-->
<html lang="en">

<head>
    <meta charset="utf-8">
    <meta name="viewport" content="width=device-width, initial-scale=1">
    <title>AdminLTE 3 | Starter</title>

    <!-- Google Font: Source Sans Pro -->
    <link rel="stylesheet"
        href="https://fonts.googleapis.com/css?family=Source+Sans+Pro:300,400,400i,700&display=fallback">
    <!-- Font Awesome Icons -->
    <link rel="stylesheet" href="/adminlte/plugins/fontawesome-free/css/all.min.css">
    <!-- Theme style -->
    <link rel="stylesheet" href="/adminlte/dist/css/adminlte.min.css">
</head>

<body class="hold-transition sidebar-mini">
    <div class="wrapper">

        @include('layouts.inc_admin.navbar')

        @include('layouts.inc_admin.sidebar')

        <!-- Content Wrapper. Contains page content -->
        <div class="content-wrapper">
            <!-- Content Header (Page header) -->
            <div class="content-header">
                <div class="container-fluid MB-2">
                    @yield('content-header')
                </div><!-- /.container-fluid -->
            </div>
            <!-- /.content-header -->
            <!-- Main content -->
            <div class="content">
                <div class="container-fluid">
                    @yield('content')
                </div><!-- /.container-fluid -->
            </div>
            <!-- /.content -->
        </div>
        <!-- /.content-wrapper -->

        <!-- Control Sidebar -->
        <aside class="control-sidebar control-sidebar-dark">
            <!-- Control sidebar content goes here -->
            <div class="p-3">
                <h5>Title</h5>
                <p>Sidebar content</p>
            </div>
        </aside>
        <!-- /.control-sidebar -->

        <!-- Main Footer -->
        <footer class="main-footer">
            <!-- To the right -->

            <!-- Default to the left -->
            <strong>Copyright &copy; Dhio anugrah</strong>
        </footer>
    </div>
    <!-- ./wrapper -->

    <!-- REQUIRED SCRIPTS -->

    <!-- jQuery -->
    <script src="/adminlte/plugins/jquery/jquery.min.js"></script>
    <!-- Bootstrap 4 -->
    <script src="/adminlte/plugins/bootstrap/js/bootstrap.bundle.min.js"></script>
    <!-- AdminLTE App -->
    <script src="/adminlte/dist/js/adminlte.min.js"></script>
</body>

</html>